EESchema Schematic File Version 4
EELAYER 29 0
EELAYER END
$Descr A4 11693 8268
encoding utf-8
Sheet 1 1
Title ""
Date ""
Rev ""
Comp ""
Comment1 ""
Comment2 ""
Comment3 ""
Comment4 ""
$EndDescr
$Comp
L Amplifier_Operational:TL072 U1
U 1 1 5D08A00F
P 4650 1200
F 0 "U1" H 4650 1567 50  0000 C CNN
F 1 "TL072" H 4650 1476 50  0000 C CNN
F 2 "Package_DIP:DIP-8_W7.62mm_LongPads" H 4650 1200 50  0001 C CNN
F 3 "http://www.ti.com/lit/ds/symlink/tl071.pdf" H 4650 1200 50  0001 C CNN
	1    4650 1200
	1    0    0    -1  
$EndComp
$Comp
L Amplifier_Operational:TL072 U1
U 2 1 5D08B149
P 4650 3800
F 0 "U1" H 4650 4167 50  0000 C CNN
F 1 "TL072" H 4650 4076 50  0000 C CNN
F 2 "Package_DIP:DIP-8_W7.62mm_LongPads" H 4650 3800 50  0001 C CNN
F 3 "http://www.ti.com/lit/ds/symlink/tl071.pdf" H 4650 3800 50  0001 C CNN
	2    4650 3800
	1    0    0    -1  
$EndComp
$Comp
L Amplifier_Operational:TL072 U1
U 3 1 5D08CA93
P 2500 6950
F 0 "U1" H 2458 6996 50  0000 L CNN
F 1 "TL072" H 2458 6905 50  0000 L CNN
F 2 "Package_DIP:DIP-8_W7.62mm_LongPads" H 2500 6950 50  0001 C CNN
F 3 "http://www.ti.com/lit/ds/symlink/tl071.pdf" H 2500 6950 50  0001 C CNN
	3    2500 6950
	1    0    0    -1  
$EndComp
$Comp
L Device:R R1
U 1 1 5D08EF53
P 4100 2250
F 0 "R1" H 4170 2296 50  0000 L CNN
F 1 "470" H 4170 2205 50  0000 L CNN
F 2 "Resistor_THT:R_Axial_DIN0207_L6.3mm_D2.5mm_P10.16mm_Horizontal" V 4030 2250 50  0001 C CNN
F 3 "~" H 4100 2250 50  0001 C CNN
	1    4100 2250
	1    0    0    -1  
$EndComp
$Comp
L Device:R_POT RV1
U 1 1 5D08F5F0
P 4100 2750
F 0 "RV1" H 4031 2796 50  0000 R CNN
F 1 "470" H 4031 2705 50  0000 R CNN
F 2 "Potentiometer_THT:Potentiometer_Bourns_3296W_Vertical" H 4100 2750 50  0001 C CNN
F 3 "~" H 4100 2750 50  0001 C CNN
	1    4100 2750
	1    0    0    -1  
$EndComp
Wire Wire Line
	4100 2400 4100 2500
Wire Wire Line
	4250 2750 4400 2750
Wire Wire Line
	4400 2750 4400 2500
Wire Wire Line
	4400 2500 4100 2500
Connection ~ 4100 2500
Wire Wire Line
	4100 2500 4100 2600
Wire Wire Line
	4100 1300 4350 1300
$Comp
L Connector:Conn_01x02_Male J2
U 1 1 5D091026
P 3550 1100
F 0 "J2" H 3658 1281 50  0000 C CNN
F 1 "IN_L" H 3658 1190 50  0000 C CNN
F 2 "Connector_Molex:Molex_KK-254_AE-6410-02A_1x02_P2.54mm_Vertical" H 3550 1100 50  0001 C CNN
F 3 "~" H 3550 1100 50  0001 C CNN
	1    3550 1100
	1    0    0    -1  
$EndComp
Wire Wire Line
	3750 1100 4350 1100
$Comp
L power:GND #PWR0101
U 1 1 5D091C42
P 3850 1300
F 0 "#PWR0101" H 3850 1050 50  0001 C CNN
F 1 "GND" H 3855 1127 50  0000 C CNN
F 2 "" H 3850 1300 50  0001 C CNN
F 3 "" H 3850 1300 50  0001 C CNN
	1    3850 1300
	1    0    0    -1  
$EndComp
Wire Wire Line
	3850 1300 3850 1200
Wire Wire Line
	3850 1200 3750 1200
$Comp
L power:GND #PWR0102
U 1 1 5D092252
P 4100 2900
F 0 "#PWR0102" H 4100 2650 50  0001 C CNN
F 1 "GND" H 4105 2727 50  0000 C CNN
F 2 "" H 4100 2900 50  0001 C CNN
F 3 "" H 4100 2900 50  0001 C CNN
	1    4100 2900
	1    0    0    -1  
$EndComp
$Comp
L Device:C C2
U 1 1 5D092993
P 5200 1550
F 0 "C2" H 5315 1596 50  0000 L CNN
F 1 "220p" H 5315 1505 50  0000 L CNN
F 2 "Capacitor_THT:C_Rect_L7.0mm_W2.0mm_P5.00mm" H 5238 1400 50  0001 C CNN
F 3 "~" H 5200 1550 50  0001 C CNN
	1    5200 1550
	1    0    0    -1  
$EndComp
Wire Wire Line
	5200 1400 5200 1200
Wire Wire Line
	5200 1200 4950 1200
Wire Wire Line
	4100 1300 4100 1900
Wire Wire Line
	5200 1700 5200 1900
Wire Wire Line
	5200 1900 4100 1900
Connection ~ 4100 1900
Wire Wire Line
	4100 1900 4100 2100
$Comp
L Device:D D1
U 1 1 5D0952CB
P 5900 1050
F 0 "D1" H 5900 834 50  0000 C CNN
F 1 "1N4148" H 5900 925 50  0000 C CNN
F 2 "Diode_THT:D_T-1_P10.16mm_Horizontal" H 5900 1050 50  0001 C CNN
F 3 "~" H 5900 1050 50  0001 C CNN
	1    5900 1050
	-1   0    0    1   
$EndComp
$Comp
L Device:D D2
U 1 1 5D095D76
P 5900 1400
F 0 "D2" H 5900 1184 50  0000 C CNN
F 1 "1N4148" H 5900 1275 50  0000 C CNN
F 2 "Diode_THT:D_T-1_P10.16mm_Horizontal" H 5900 1400 50  0001 C CNN
F 3 "~" H 5900 1400 50  0001 C CNN
	1    5900 1400
	-1   0    0    1   
$EndComp
$Comp
L Device:D D3
U 1 1 5D096092
P 5900 1750
F 0 "D3" H 5900 1966 50  0000 C CNN
F 1 "1N4148" H 5900 1875 50  0000 C CNN
F 2 "Diode_THT:D_T-1_P10.16mm_Horizontal" H 5900 1750 50  0001 C CNN
F 3 "~" H 5900 1750 50  0001 C CNN
	1    5900 1750
	1    0    0    -1  
$EndComp
$Comp
L Device:D D4
U 1 1 5D096421
P 5900 2100
F 0 "D4" H 5900 2316 50  0000 C CNN
F 1 "1N4148" H 5900 2225 50  0000 C CNN
F 2 "Diode_THT:D_T-1_P10.16mm_Horizontal" H 5900 2100 50  0001 C CNN
F 3 "~" H 5900 2100 50  0001 C CNN
	1    5900 2100
	1    0    0    -1  
$EndComp
Wire Wire Line
	5750 1050 5600 1050
Wire Wire Line
	5200 1050 5200 1200
Connection ~ 5200 1200
Wire Wire Line
	5600 1050 5600 1750
Wire Wire Line
	5600 1750 5750 1750
Connection ~ 5600 1050
Wire Wire Line
	5600 1050 5200 1050
Wire Wire Line
	6050 1400 6200 1400
Wire Wire Line
	6200 1400 6200 1050
Wire Wire Line
	6200 1050 6050 1050
Wire Wire Line
	5750 1400 5550 1400
Wire Wire Line
	5550 1400 5550 1900
Wire Wire Line
	5550 1900 5200 1900
Connection ~ 5200 1900
Wire Wire Line
	5550 1900 5550 2100
Wire Wire Line
	5550 2100 5750 2100
Connection ~ 5550 1900
Wire Wire Line
	6050 1750 6200 1750
Wire Wire Line
	6200 1750 6200 2100
Wire Wire Line
	6200 2100 6050 2100
$Comp
L Device:R R3
U 1 1 5D099BAA
P 6500 1050
F 0 "R3" V 6293 1050 50  0000 C CNN
F 1 "150" V 6384 1050 50  0000 C CNN
F 2 "Resistor_THT:R_Axial_DIN0207_L6.3mm_D2.5mm_P10.16mm_Horizontal" V 6430 1050 50  0001 C CNN
F 3 "~" H 6500 1050 50  0001 C CNN
	1    6500 1050
	0    1    1    0   
$EndComp
$Comp
L Device:R R4
U 1 1 5D09A072
P 6500 2100
F 0 "R4" V 6293 2100 50  0000 C CNN
F 1 "150" V 6384 2100 50  0000 C CNN
F 2 "Resistor_THT:R_Axial_DIN0207_L6.3mm_D2.5mm_P10.16mm_Horizontal" V 6430 2100 50  0001 C CNN
F 3 "~" H 6500 2100 50  0001 C CNN
	1    6500 2100
	0    1    1    0   
$EndComp
Wire Wire Line
	6350 2100 6200 2100
Connection ~ 6200 2100
Wire Wire Line
	6350 1050 6200 1050
Connection ~ 6200 1050
$Comp
L Device:CP_Small C4
U 1 1 5D09B542
P 6850 1550
F 0 "C4" H 6938 1596 50  0000 L CNN
F 1 "47u" H 6938 1505 50  0000 L CNN
F 2 "Capacitor_THT:CP_Radial_D6.3mm_P2.50mm" H 6850 1550 50  0001 C CNN
F 3 "~" H 6850 1550 50  0001 C CNN
	1    6850 1550
	1    0    0    -1  
$EndComp
Wire Wire Line
	6850 1450 6850 1050
Wire Wire Line
	6850 1050 6650 1050
Wire Wire Line
	6850 1650 6850 2100
Wire Wire Line
	6850 2100 6650 2100
$Comp
L Connector:Conn_01x02_Male J4
U 1 1 5D09CF71
P 7500 1600
F 0 "J4" H 7472 1482 50  0000 R CNN
F 1 "VU_L" H 7472 1573 50  0000 R CNN
F 2 "Connector_Molex:Molex_KK-254_AE-6410-02A_1x02_P2.54mm_Vertical" H 7500 1600 50  0001 C CNN
F 3 "~" H 7500 1600 50  0001 C CNN
	1    7500 1600
	-1   0    0    1   
$EndComp
Wire Wire Line
	7300 1500 7200 1500
Wire Wire Line
	7200 1500 7200 1050
Wire Wire Line
	7200 1050 6850 1050
Connection ~ 6850 1050
Wire Wire Line
	7300 1600 7200 1600
Wire Wire Line
	7200 1600 7200 2100
Wire Wire Line
	7200 2100 6850 2100
Connection ~ 6850 2100
$Comp
L Device:R R2
U 1 1 5D0C2457
P 4100 4850
F 0 "R2" H 4170 4896 50  0000 L CNN
F 1 "470" H 4170 4805 50  0000 L CNN
F 2 "Resistor_THT:R_Axial_DIN0207_L6.3mm_D2.5mm_P10.16mm_Horizontal" V 4030 4850 50  0001 C CNN
F 3 "~" H 4100 4850 50  0001 C CNN
	1    4100 4850
	1    0    0    -1  
$EndComp
$Comp
L Device:R_POT RV2
U 1 1 5D0C245D
P 4100 5350
F 0 "RV2" H 4031 5396 50  0000 R CNN
F 1 "470" H 4031 5305 50  0000 R CNN
F 2 "Potentiometer_THT:Potentiometer_Bourns_3296W_Vertical" H 4100 5350 50  0001 C CNN
F 3 "~" H 4100 5350 50  0001 C CNN
	1    4100 5350
	1    0    0    -1  
$EndComp
Wire Wire Line
	4100 5000 4100 5100
Wire Wire Line
	4250 5350 4400 5350
Wire Wire Line
	4400 5350 4400 5100
Wire Wire Line
	4400 5100 4100 5100
Connection ~ 4100 5100
Wire Wire Line
	4100 5100 4100 5200
Wire Wire Line
	4100 3900 4350 3900
$Comp
L Connector:Conn_01x02_Male J3
U 1 1 5D0C246A
P 3550 3700
F 0 "J3" H 3658 3881 50  0000 C CNN
F 1 "IN_R" H 3658 3790 50  0000 C CNN
F 2 "Connector_Molex:Molex_KK-254_AE-6410-02A_1x02_P2.54mm_Vertical" H 3550 3700 50  0001 C CNN
F 3 "~" H 3550 3700 50  0001 C CNN
	1    3550 3700
	1    0    0    -1  
$EndComp
Wire Wire Line
	3750 3700 4350 3700
$Comp
L power:GND #PWR0103
U 1 1 5D0C2471
P 3850 3900
F 0 "#PWR0103" H 3850 3650 50  0001 C CNN
F 1 "GND" H 3855 3727 50  0000 C CNN
F 2 "" H 3850 3900 50  0001 C CNN
F 3 "" H 3850 3900 50  0001 C CNN
	1    3850 3900
	1    0    0    -1  
$EndComp
Wire Wire Line
	3850 3900 3850 3800
Wire Wire Line
	3850 3800 3750 3800
$Comp
L power:GND #PWR0104
U 1 1 5D0C2479
P 4100 5500
F 0 "#PWR0104" H 4100 5250 50  0001 C CNN
F 1 "GND" H 4105 5327 50  0000 C CNN
F 2 "" H 4100 5500 50  0001 C CNN
F 3 "" H 4100 5500 50  0001 C CNN
	1    4100 5500
	1    0    0    -1  
$EndComp
$Comp
L Device:C C3
U 1 1 5D0C247F
P 5200 4150
F 0 "C3" H 5315 4196 50  0000 L CNN
F 1 "220p" H 5315 4105 50  0000 L CNN
F 2 "Capacitor_THT:C_Rect_L7.0mm_W2.0mm_P5.00mm" H 5238 4000 50  0001 C CNN
F 3 "~" H 5200 4150 50  0001 C CNN
	1    5200 4150
	1    0    0    -1  
$EndComp
Wire Wire Line
	5200 4000 5200 3800
Wire Wire Line
	5200 3800 4950 3800
Wire Wire Line
	4100 3900 4100 4500
Wire Wire Line
	5200 4300 5200 4500
Wire Wire Line
	5200 4500 4100 4500
Connection ~ 4100 4500
Wire Wire Line
	4100 4500 4100 4700
$Comp
L Device:D D5
U 1 1 5D0C248C
P 5900 3650
F 0 "D5" H 5900 3434 50  0000 C CNN
F 1 "1N4148" H 5900 3525 50  0000 C CNN
F 2 "Diode_THT:D_T-1_P10.16mm_Horizontal" H 5900 3650 50  0001 C CNN
F 3 "~" H 5900 3650 50  0001 C CNN
	1    5900 3650
	-1   0    0    1   
$EndComp
$Comp
L Device:D D6
U 1 1 5D0C2492
P 5900 4000
F 0 "D6" H 5900 3784 50  0000 C CNN
F 1 "1N4148" H 5900 3875 50  0000 C CNN
F 2 "Diode_THT:D_T-1_P10.16mm_Horizontal" H 5900 4000 50  0001 C CNN
F 3 "~" H 5900 4000 50  0001 C CNN
	1    5900 4000
	-1   0    0    1   
$EndComp
$Comp
L Device:D D7
U 1 1 5D0C2498
P 5900 4350
F 0 "D7" H 5900 4566 50  0000 C CNN
F 1 "1N4148" H 5900 4475 50  0000 C CNN
F 2 "Diode_THT:D_T-1_P10.16mm_Horizontal" H 5900 4350 50  0001 C CNN
F 3 "~" H 5900 4350 50  0001 C CNN
	1    5900 4350
	1    0    0    -1  
$EndComp
$Comp
L Device:D D8
U 1 1 5D0C249E
P 5900 4700
F 0 "D8" H 5900 4916 50  0000 C CNN
F 1 "1N4148" H 5900 4825 50  0000 C CNN
F 2 "Diode_THT:D_T-1_P10.16mm_Horizontal" H 5900 4700 50  0001 C CNN
F 3 "~" H 5900 4700 50  0001 C CNN
	1    5900 4700
	1    0    0    -1  
$EndComp
Wire Wire Line
	5750 3650 5600 3650
Wire Wire Line
	5200 3650 5200 3800
Connection ~ 5200 3800
Wire Wire Line
	5600 3650 5600 4350
Wire Wire Line
	5600 4350 5750 4350
Connection ~ 5600 3650
Wire Wire Line
	5600 3650 5200 3650
Wire Wire Line
	6050 4000 6200 4000
Wire Wire Line
	6200 4000 6200 3650
Wire Wire Line
	6200 3650 6050 3650
Wire Wire Line
	5750 4000 5550 4000
Wire Wire Line
	5550 4000 5550 4500
Wire Wire Line
	5550 4500 5200 4500
Connection ~ 5200 4500
Wire Wire Line
	5550 4500 5550 4700
Wire Wire Line
	5550 4700 5750 4700
Connection ~ 5550 4500
Wire Wire Line
	6050 4350 6200 4350
Wire Wire Line
	6200 4350 6200 4700
Wire Wire Line
	6200 4700 6050 4700
$Comp
L Device:R R5
U 1 1 5D0C24B8
P 6500 3650
F 0 "R5" V 6293 3650 50  0000 C CNN
F 1 "150" V 6384 3650 50  0000 C CNN
F 2 "Resistor_THT:R_Axial_DIN0207_L6.3mm_D2.5mm_P10.16mm_Horizontal" V 6430 3650 50  0001 C CNN
F 3 "~" H 6500 3650 50  0001 C CNN
	1    6500 3650
	0    1    1    0   
$EndComp
$Comp
L Device:R R6
U 1 1 5D0C24BE
P 6500 4700
F 0 "R6" V 6293 4700 50  0000 C CNN
F 1 "150" V 6384 4700 50  0000 C CNN
F 2 "Resistor_THT:R_Axial_DIN0207_L6.3mm_D2.5mm_P10.16mm_Horizontal" V 6430 4700 50  0001 C CNN
F 3 "~" H 6500 4700 50  0001 C CNN
	1    6500 4700
	0    1    1    0   
$EndComp
Wire Wire Line
	6350 4700 6200 4700
Connection ~ 6200 4700
Wire Wire Line
	6350 3650 6200 3650
Connection ~ 6200 3650
$Comp
L Device:CP_Small C5
U 1 1 5D0C24C8
P 6850 4150
F 0 "C5" H 6938 4196 50  0000 L CNN
F 1 "47u" H 6938 4105 50  0000 L CNN
F 2 "Capacitor_THT:CP_Radial_D6.3mm_P2.50mm" H 6850 4150 50  0001 C CNN
F 3 "~" H 6850 4150 50  0001 C CNN
	1    6850 4150
	1    0    0    -1  
$EndComp
Wire Wire Line
	6850 4050 6850 3650
Wire Wire Line
	6850 3650 6650 3650
Wire Wire Line
	6850 4250 6850 4700
Wire Wire Line
	6850 4700 6650 4700
$Comp
L Connector:Conn_01x02_Male J5
U 1 1 5D0C24D2
P 7500 4200
F 0 "J5" H 7472 4082 50  0000 R CNN
F 1 "VU_R" H 7472 4173 50  0000 R CNN
F 2 "Connector_Molex:Molex_KK-254_AE-6410-02A_1x02_P2.54mm_Vertical" H 7500 4200 50  0001 C CNN
F 3 "~" H 7500 4200 50  0001 C CNN
	1    7500 4200
	-1   0    0    1   
$EndComp
Wire Wire Line
	7300 4100 7200 4100
Wire Wire Line
	7200 4100 7200 3650
Wire Wire Line
	7200 3650 6850 3650
Connection ~ 6850 3650
Wire Wire Line
	7300 4200 7200 4200
Wire Wire Line
	7200 4200 7200 4700
Wire Wire Line
	7200 4700 6850 4700
Connection ~ 6850 4700
$Comp
L Connector:Conn_01x03_Male J1
U 1 1 5D0C6CEC
P 1400 7000
F 0 "J1" H 1508 7281 50  0000 C CNN
F 1 "SUPPLY" H 1508 7190 50  0000 C CNN
F 2 "Connector_Molex:Molex_KK-254_AE-6410-03A_1x03_P2.54mm_Vertical" H 1400 7000 50  0001 C CNN
F 3 "~" H 1400 7000 50  0001 C CNN
	1    1400 7000
	1    0    0    -1  
$EndComp
$Comp
L power:GND #PWR0105
U 1 1 5D0C7A96
P 1800 7350
F 0 "#PWR0105" H 1800 7100 50  0001 C CNN
F 1 "GND" H 1805 7177 50  0000 C CNN
F 2 "" H 1800 7350 50  0001 C CNN
F 3 "" H 1800 7350 50  0001 C CNN
	1    1800 7350
	1    0    0    -1  
$EndComp
Wire Wire Line
	1800 7350 1800 7000
Wire Wire Line
	1800 7000 1600 7000
Wire Wire Line
	1600 6900 1950 6900
Wire Wire Line
	1950 6900 1950 6550
Wire Wire Line
	1950 6550 2400 6550
Wire Wire Line
	2400 6550 2400 6650
Wire Wire Line
	1600 7100 1950 7100
Wire Wire Line
	1950 7100 1950 7350
Wire Wire Line
	1950 7350 2400 7350
Wire Wire Line
	2400 7350 2400 7250
$Comp
L Device:C C1
U 1 1 5D0D510E
P 2850 6950
F 0 "C1" H 2965 6996 50  0000 L CNN
F 1 "100n" H 2965 6905 50  0000 L CNN
F 2 "Capacitor_THT:C_Rect_L7.0mm_W2.0mm_P5.00mm" H 2888 6800 50  0001 C CNN
F 3 "~" H 2850 6950 50  0001 C CNN
	1    2850 6950
	1    0    0    -1  
$EndComp
Wire Wire Line
	2850 6800 2850 6550
Wire Wire Line
	2850 6550 2400 6550
Connection ~ 2400 6550
Wire Wire Line
	2850 7100 2850 7350
Wire Wire Line
	2850 7350 2400 7350
Connection ~ 2400 7350
$EndSCHEMATC
